/home/emidstest04/eclipse-workspace/HealthInsurance/SpringMvcUser/src/main/java/jbr/springmvc/dao/UserDao.java
/home/emidstest04/eclipse-workspace/HealthInsurance/SpringMvcUser/src/main/java/jbr/springmvc/model/User.java
/home/emidstest04/eclipse-workspace/HealthInsurance/SpringMvcUser/src/main/java/jbr/springmvc/dao/UserDaoImpl.java
/home/emidstest04/eclipse-workspace/HealthInsurance/SpringMvcUser/src/main/java/jbr/springmvc/controller/RegistrationController.java
